{
	"all":{
		"photo1": {
				"name": "Photo1 Name",
				"link": "google.com",
				"img": "photo1.gif",
				"tags": ["tag2", "tag3"]
		},
		"photo2": {
				"name": "Photo2 Name",
				"link": "google.com",
				"img": "photo2.jpg",
				"tags": ["tag1", "tag2", "tag3"]
		},
		"photo3": {
				"name": "Photo3 Name",
				"link": "google.com",
				"img": "photo3.png",
				"tags": ["tag1", "tag3"]
		},
		"photo4": {
				"name": "Photo4 Name",
				"link": "google.com",
				"img": "photo4.png",
				"tags": ["tag1", "tag2", "tag3"]
		},
		"photo5": {
				"name": "Photo5 Name",
				"link": "google.com",
				"img": "photo5.jpg",
				"tags": ["tag1", "tag2", "tag3"]
		},
		"photo6": {
				"name": "Photo6 Name",
				"link": "google.com",
				"img": "photo6.png",
				"tags": ["tag1", "tag2"]
		}
	}
}